<?xml version="1.0" encoding="UTF-8" standalone="no"?>
<svg
   xmlns:dc="http://purl.org/dc/elements/1.1/"
   xmlns:cc="http://creativecommons.org/ns#"
   xmlns:rdf="http://www.w3.org/1999/02/22-rdf-syntax-ns#"
   xmlns:svg="http://www.w3.org/2000/svg"
   xmlns="http://www.w3.org/2000/svg"
   xmlns:sodipodi="http://sodipodi.sourceforge.net/DTD/sodipodi-0.dtd"
   xmlns:inkscape="http://www.inkscape.org/namespaces/inkscape"
   viewBox="0 0 32 32"
   height="32"
   width="32"
   id="svg2"
   version="1.1"
   sodipodi:docname="mirilla__.svg"
   inkscape:version="0.92.2 5c3e80d, 2017-08-06"
   inkscape:export-filename="/home/sol/Proyectos-git/Bordakenstein/iconos/g856-62-5.png"
   inkscape:export-xdpi="71"
   inkscape:export-ydpi="71">
  <sodipodi:namedview
     pagecolor="#ffffff"
     bordercolor="#666666"
     borderopacity="1"
     objecttolerance="10"
     gridtolerance="10"
     guidetolerance="10"
     inkscape:pageopacity="0"
     inkscape:pageshadow="2"
     inkscape:window-width="1869"
     inkscape:window-height="1025"
     id="namedview30"
     showgrid="false"
     inkscape:zoom="24.25"
     inkscape:cx="16"
     inkscape:cy="16.127712"
     inkscape:window-x="51"
     inkscape:window-y="27"
     inkscape:window-maximized="1"
     inkscape:current-layer="svg2" />
  <metadata
     id="metadata8">
    <rdf:RDF>
      <cc:Work
         rdf:about="">
        <dc:format>image/svg+xml</dc:format>
        <dc:type
           rdf:resource="http://purl.org/dc/dcmitype/StillImage" />
        <dc:title></dc:title>
      </cc:Work>
    </rdf:RDF>
  </metadata>
  <defs
     id="defs6" />
  <path
     style="opacity:1;fill:#55d672;fill-opacity:1;stroke:#55d672;stroke-width:0.5;stroke-linecap:butt;stroke-linejoin:miter;stroke-miterlimit:4;stroke-dasharray:none;stroke-dashoffset:0;stroke-opacity:1;paint-order:normal"
     d="M 14.309278,31.36088 C 11.524252,31.024945 8.9022074,29.985224 6.742268,28.360328 5.3931064,27.34537 4.1092162,25.99474 3.1848733,24.618011 1.7257327,22.444748 0.78630012,19.766024 0.61295578,17.284373 0.54780858,16.351707 0.59016721,14.598691 0.69470551,13.901154 1.0599572,11.463994 1.8283503,9.4487738 3.1554328,7.4475458 3.7834245,6.5005404 4.2164651,5.9732687 5.0718313,5.1141342 7.6040219,2.5707866 10.727593,1.0625192 14.329644,0.64384677 c 0.628071,-0.0730017 2.504149,-0.0849475 3.160832,-0.0201263 3.388221,0.33445133 6.562202,1.77158163 9.042483,4.09429953 1.397633,1.308847 2.428603,2.692814 3.296195,4.4247889 0.758205,1.5136071 1.224553,3.0379951 1.49985,4.9026751 0.10434,0.706728 0.102119,3.234002 -0.0035,3.95263 -0.407065,2.770355 -1.405605,5.189468 -3.032356,7.346339 -1.484859,1.968741 -3.58156,3.65555 -5.81616,4.679135 -1.708335,0.782524 -3.641427,1.27658 -5.33153,1.362621 -1.049256,0.05342 -2.274063,0.04248 -2.836206,-0.02533 z m 2.57732,-4.349008 c 1.410679,-0.106504 2.724807,-0.470777 4.015009,-1.112952 2.65383,-1.320896 4.675898,-3.638872 5.591833,-6.410137 0.343125,-1.038163 0.50768,-1.978671 0.544732,-3.113402 0.08814,-2.699209 -0.754198,-5.226799 -2.446167,-7.3402064 C 24.204305,8.5509062 23.444215,7.7975107 22.934602,7.3923709 21.369576,6.1481829 19.725383,5.4174019 17.706184,5.0685404 17.241704,4.9882913 17.028173,4.9768113 16,4.9768113 c -1.315902,0 -1.73007,0.048538 -2.793994,0.3274396 -3.8104246,0.9988813 -6.8303149,3.9762635 -7.8660382,7.7553161 -0.4468214,1.630321 -0.5119855,3.475975 -0.1804053,5.109628 0.3472424,1.710818 1.1515134,3.425091 2.245494,4.786187 1.5196553,1.890708 3.7879935,3.299566 6.1619535,3.827173 1.083671,0.240843 2.171532,0.315992 3.319588,0.229317 z"
     id="path897"
     inkscape:connector-curvature="0" />
  <ellipse
     ry="4.5296106"
     rx="4.5296102"
     cy="16"
     cx="16"
     id="path913"
     style="opacity:1;fill:#55d672;fill-opacity:1;stroke:#000301;stroke-width:0.5;stroke-linecap:round;stroke-linejoin:round;stroke-miterlimit:4;stroke-dasharray:none;stroke-dashoffset:0;stroke-opacity:1" />
  <g
     inkscape:groupmode="layer"
     id="layer1"
     inkscape:label="rellenos"
     style="display:none">
    <path
       style="opacity:1;fill:#55d672;fill-opacity:1;stroke:#55d672;stroke-width:1;stroke-linecap:butt;stroke-linejoin:miter;stroke-miterlimit:4;stroke-dasharray:none;stroke-dashoffset:0;stroke-opacity:1;paint-order:normal"
       d="M 27.087344,12.096831 C 26.830055,11.274082 26.282863,10.1373 25.786414,9.3941723 24.33287,7.2183802 22.213851,5.6527847 19.702444,4.8991507 L 19.221188,4.7547334 19.207069,3.06399 c -0.01129,-1.3516223 -2.93e-4,-1.6907433 0.05481,-1.6907433 0.148864,0 1.378359,0.3255987 1.884327,0.4990134 1.131603,0.3878432 1.927801,0.7558623 2.882803,1.3324912 1.106944,0.6683707 1.826672,1.2386019 2.813011,2.2287115 1.909716,1.9170162 3.209025,4.2929801 3.810796,6.9685562 l 0.08118,0.360942 -1.719206,-1.07e-4 -1.719207,-1.07e-4 -0.208243,-0.66591 z"
       id="path907"
       inkscape:connector-curvature="0" />
    <path
       style="opacity:1;fill:#55d672;fill-opacity:1;stroke:#55d672;stroke-width:1;stroke-linecap:butt;stroke-linejoin:miter;stroke-miterlimit:4;stroke-dasharray:none;stroke-dashoffset:0;stroke-opacity:1;paint-order:normal"
       d="m 19.294,28.763418 v -1.71936 l 0.360942,-0.101276 c 2.886237,-0.809851 5.454379,-2.947548 6.81804,-5.675273 0.308178,-0.616446 0.604408,-1.37137 0.746621,-1.902713 l 0.112555,-0.420537 h 1.702515 c 1.455355,0 1.702514,0.01131 1.702514,0.07791 0,0.153364 -0.370095,1.510054 -0.562227,2.061004 -1.618814,4.642052 -5.670596,8.259658 -10.413073,9.29724 L 19.294,30.48278 Z"
       id="path909"
       inkscape:connector-curvature="0" />
    <path
       style="opacity:1;fill:#55d672;fill-opacity:1;stroke:#55d672;stroke-width:1;stroke-linecap:butt;stroke-linejoin:miter;stroke-miterlimit:4;stroke-dasharray:none;stroke-dashoffset:0;stroke-opacity:1;paint-order:normal"
       d="M 12.137304,30.4124 C 6.8608952,29.064479 2.8650088,25.058068 1.5738709,19.821146 1.4870419,19.468963 1.416,19.162162 1.416,19.139367 c 0,-0.02279 0.7707641,-0.04145 1.712809,-0.04145 1.3244986,0 1.7171024,0.01515 1.7317468,0.06684 0.1901089,0.670992 0.5328885,1.592202 0.7809607,2.098809 1.3297867,2.715657 3.6665224,4.74693 6.5322035,5.678301 l 0.791313,0.257184 5.5e-4,1.208292 c 5.62e-4,1.23443 -0.04358,2.189049 -0.101034,2.184934 -0.01765,-0.0013 -0.344913,-0.08221 -0.727244,-0.179882 z"
       id="path911"
       inkscape:connector-curvature="0" />
    <path
       style="opacity:1;fill:#55d672;fill-opacity:1;stroke:#55d672;stroke-width:1;stroke-linecap:butt;stroke-linejoin:miter;stroke-miterlimit:4;stroke-dasharray:none;stroke-dashoffset:0;stroke-opacity:1;paint-order:normal"
       d="m 1.4463846,12.522385 c 0.078518,-0.438561 0.3551136,-1.431917 0.550566,-1.977281 1.537198,-4.2891955 4.9882417,-7.6075943 9.3108544,-8.9529799 0.573751,-0.1785763 1.316716,-0.3649377 1.457134,-0.3654999 0.08717,-3.492e-4 0.09357,0.1159174 0.09342,1.697388 L 12.858198,4.6217747 12.14984,4.8489969 C 8.7725764,5.9323339 6.0914707,8.6454988 5.0165324,12.067605 l -0.2056772,0.654781 -1.7001856,2.61e-4 -1.7001856,2.61e-4 z"
       id="path914"
       inkscape:connector-curvature="0" />
  </g>
  <g
     inkscape:groupmode="layer"
     id="layer2"
     inkscape:label="perfiles"
     style="display:none">
    <g
       id="g882">
      <g
         style="stroke:#000000;stroke-width:1.03672779;stroke-miterlimit:4;stroke-dasharray:none;stroke-opacity:1"
         transform="matrix(0,0.96758563,-0.96157048,0,31.971626,0.89565689)"
         id="g856-62">
        <path
           inkscape:connector-curvature="0"
           d="M 18.030684,0.38391231 A 15.747567,15.747567 0 0 1 31.6206,14.00432"
           id="path819-9"
           style="opacity:1;fill:none;fill-opacity:1;stroke:#000000;stroke-width:1.03672779;stroke-linecap:round;stroke-linejoin:round;stroke-miterlimit:4;stroke-dasharray:none;stroke-dashoffset:0;stroke-opacity:1" />
        <path
           inkscape:connector-curvature="0"
           d="m 18.016907,5.4692806 a 10.722125,10.722125 0 0 1 8.517461,8.5329564"
           id="path819-3-1"
           style="opacity:1;fill:none;fill-opacity:1;stroke:#000000;stroke-width:1.03672779;stroke-linecap:round;stroke-linejoin:round;stroke-miterlimit:4;stroke-dasharray:none;stroke-dashoffset:0;stroke-opacity:1" />
        <path
           inkscape:connector-curvature="0"
           id="path846-2"
           d="M 18.030684,0.38391231 18.016907,5.4692806"
           style="fill:none;stroke:#000000;stroke-width:1.03672779;stroke-linecap:round;stroke-linejoin:miter;stroke-miterlimit:4;stroke-dasharray:none;stroke-opacity:1" />
        <path
           inkscape:connector-curvature="0"
           id="path848-7"
           d="M 31.6206,14.00432 26.534368,14.0022"
           style="fill:none;stroke:#000000;stroke-width:1.03672779;stroke-linecap:round;stroke-linejoin:miter;stroke-miterlimit:4;stroke-dasharray:none;stroke-opacity:1" />
      </g>
      <g
         style="stroke:#000000;stroke-width:1.03672779;stroke-miterlimit:4;stroke-dasharray:none;stroke-opacity:1"
         transform="matrix(0,-0.96758563,0.96157048,0,0.13638372,30.924322)"
         id="g856-62-3">
        <path
           inkscape:connector-curvature="0"
           d="M 18.030684,0.38391231 A 15.747567,15.747567 0 0 1 31.6206,14.00432"
           id="path819-9-6"
           style="opacity:1;fill:none;fill-opacity:1;stroke:#000000;stroke-width:1.03672779;stroke-linecap:round;stroke-linejoin:round;stroke-miterlimit:4;stroke-dasharray:none;stroke-dashoffset:0;stroke-opacity:1" />
        <path
           inkscape:connector-curvature="0"
           d="m 18.016907,5.4692806 a 10.722125,10.722125 0 0 1 8.517461,8.5329564"
           id="path819-3-1-7"
           style="opacity:1;fill:none;fill-opacity:1;stroke:#000000;stroke-width:1.03672779;stroke-linecap:round;stroke-linejoin:round;stroke-miterlimit:4;stroke-dasharray:none;stroke-dashoffset:0;stroke-opacity:1" />
        <path
           inkscape:connector-curvature="0"
           id="path846-2-5"
           d="M 18.030684,0.38391231 18.016907,5.4692806"
           style="fill:none;stroke:#000000;stroke-width:1.03672779;stroke-linecap:round;stroke-linejoin:miter;stroke-miterlimit:4;stroke-dasharray:none;stroke-opacity:1" />
        <path
           inkscape:connector-curvature="0"
           id="path848-7-3"
           d="M 31.6206,14.00432 26.534368,14.0022"
           style="fill:none;stroke:#000000;stroke-width:1.03672779;stroke-linecap:round;stroke-linejoin:miter;stroke-miterlimit:4;stroke-dasharray:none;stroke-opacity:1" />
      </g>
      <g
         inkscape:export-ydpi="163.99834"
         inkscape:export-xdpi="163.99834"
         style="stroke:#000000;stroke-width:1.03886342;stroke-miterlimit:4;stroke-dasharray:none;stroke-opacity:1"
         transform="matrix(0.96778135,0,0,0.95740191,1.0733098,0.08791338)"
         id="g856-62-5">
        <path
           inkscape:connector-curvature="0"
           d="M 18.030684,0.38391231 A 15.747567,15.747567 0 0 1 31.6206,14.00432"
           id="path819-9-62"
           style="opacity:1;fill:none;fill-opacity:1;stroke:#000000;stroke-width:1.03886342;stroke-linecap:round;stroke-linejoin:round;stroke-miterlimit:4;stroke-dasharray:none;stroke-dashoffset:0;stroke-opacity:1" />
        <path
           inkscape:connector-curvature="0"
           d="m 18.016907,5.4692806 a 10.722125,10.722125 0 0 1 8.517461,8.5329564"
           id="path819-3-1-9"
           style="opacity:1;fill:none;fill-opacity:1;stroke:#000000;stroke-width:1.03886342;stroke-linecap:round;stroke-linejoin:round;stroke-miterlimit:4;stroke-dasharray:none;stroke-dashoffset:0;stroke-opacity:1" />
        <path
           inkscape:connector-curvature="0"
           id="path846-2-1"
           d="M 18.030684,0.38391231 18.016907,5.4692806"
           style="fill:none;stroke:#000000;stroke-width:1.03886342;stroke-linecap:round;stroke-linejoin:miter;stroke-miterlimit:4;stroke-dasharray:none;stroke-opacity:1" />
        <path
           inkscape:connector-curvature="0"
           id="path848-7-2"
           d="M 31.6206,14.00432 26.534368,14.0022"
           style="fill:none;stroke:#000000;stroke-width:1.03886342;stroke-linecap:round;stroke-linejoin:miter;stroke-miterlimit:4;stroke-dasharray:none;stroke-opacity:1" />
      </g>
      <g
         style="stroke:#000000;stroke-width:1.03672779;stroke-miterlimit:4;stroke-dasharray:none;stroke-opacity:1"
         transform="matrix(-0.96758563,0,0,-0.96157048,31.104343,31.863616)"
         id="g856-62-7">
        <path
           inkscape:connector-curvature="0"
           d="M 18.030684,0.38391231 A 15.747567,15.747567 0 0 1 31.6206,14.00432"
           id="path819-9-0"
           style="opacity:1;fill:none;fill-opacity:1;stroke:#000000;stroke-width:1.03672779;stroke-linecap:round;stroke-linejoin:round;stroke-miterlimit:4;stroke-dasharray:none;stroke-dashoffset:0;stroke-opacity:1" />
        <path
           inkscape:connector-curvature="0"
           d="m 18.016907,5.4692806 a 10.722125,10.722125 0 0 1 8.517461,8.5329564"
           id="path819-3-1-93"
           style="opacity:1;fill:none;fill-opacity:1;stroke:#000000;stroke-width:1.03672779;stroke-linecap:round;stroke-linejoin:round;stroke-miterlimit:4;stroke-dasharray:none;stroke-dashoffset:0;stroke-opacity:1" />
        <path
           inkscape:connector-curvature="0"
           id="path846-2-6"
           d="M 18.030684,0.38391231 18.016907,5.4692806"
           style="fill:none;stroke:#000000;stroke-width:1.03672779;stroke-linecap:round;stroke-linejoin:miter;stroke-miterlimit:4;stroke-dasharray:none;stroke-opacity:1" />
        <path
           inkscape:connector-curvature="0"
           id="path848-7-0"
           d="M 31.6206,14.00432 26.534368,14.0022"
           style="fill:none;stroke:#000000;stroke-width:1.03672779;stroke-linecap:round;stroke-linejoin:miter;stroke-miterlimit:4;stroke-dasharray:none;stroke-opacity:1" />
      </g>
    </g>
  </g>
  <g
     inkscape:groupmode="layer"
     id="layer3"
     inkscape:label="aro">
    <circle
       style="display:inline;opacity:1;fill:none;fill-opacity:1;stroke:#000000;stroke-width:0.50013655;stroke-linecap:butt;stroke-linejoin:miter;stroke-miterlimit:4;stroke-dasharray:none;stroke-dashoffset:0;stroke-opacity:1;paint-order:normal"
       id="path884"
       cx="16"
       cy="16"
       r="15.749931" />
    <circle
       style="display:inline;opacity:1;fill:none;fill-opacity:1;stroke:#000000;stroke-width:0.5;stroke-linecap:butt;stroke-linejoin:miter;stroke-miterlimit:4;stroke-dasharray:none;stroke-dashoffset:0;stroke-opacity:1;paint-order:normal"
       id="path888"
       cx="16"
       cy="16"
       r="10.766729" />
  </g>
  <path
     style="opacity:1;fill:none;fill-opacity:1;stroke:#55d672;stroke-width:0.02061856;stroke-linecap:butt;stroke-linejoin:miter;stroke-miterlimit:4;stroke-dasharray:none;stroke-dashoffset:0;stroke-opacity:1;paint-order:normal"
     d="M 14.845361,31.442872 C 11.138729,31.119159 7.8300425,29.628897 5.2424841,27.117649 2.7026495,24.652717 1.1385385,21.53612 0.63774255,17.942391 0.54640487,17.286949 0.51111409,15.469096 0.57511324,14.716312 0.83813165,11.622578 2.0118389,8.7025953 3.9765014,6.2542414 4.4392574,5.6775569 5.4502697,4.6508097 6.045226,4.1533199 8.4941542,2.1055782 11.356274,0.91057044 14.597938,0.58234486 c 0.649778,-0.0657914 2.270446,-0.0550086 2.983229,0.0198484 3.098252,0.32538064 5.976848,1.54631254 8.37344,3.55152334 0.600871,0.5027446 1.613313,1.5302267 2.069661,2.1004061 1.966939,2.457574 3.137769,5.3704033 3.400401,8.4596333 0.06465,0.760508 0.0306,2.537025 -0.06149,3.208017 -0.488069,3.556074 -2.038714,6.680748 -4.524798,9.117832 -2.445693,2.39749 -5.439702,3.846677 -8.941474,4.327933 -0.453552,0.06233 -2.595058,0.115201 -3.051546,0.07533 z m 1.896907,-4.446004 c 0.977436,-0.03977 2.25357,-0.317417 3.242737,-0.705506 2.872276,-1.126907 5.141399,-3.380313 6.278842,-6.235351 0.725929,-1.822117 0.944703,-3.897679 0.618324,-5.866197 C 26.385719,11.195518 24.684682,8.5510814 22.163583,6.854281 20.713161,5.8780897 19.159165,5.2893817 17.402062,5.0504501 c -0.701788,-0.095429 -2.102336,-0.095429 -2.804124,0 C 13.556136,5.1921148 12.551349,5.470246 11.602739,5.8795404 9.6578437,6.7186992 7.9467497,8.161453 6.7686318,9.9555437 5.8402763,11.369285 5.2823555,12.890811 5.0471905,14.65015 c -0.081807,0.612021 -0.092277,1.922637 -0.020372,2.549973 0.4241031,3.70006 2.6328915,6.911575 5.9137465,8.598415 1.067461,0.548831 2.037412,0.874492 3.203765,1.075662 0.542619,0.09359 1.649775,0.180784 1.958763,0.154262 0.06804,-0.0058 0.35567,-0.02006 0.639175,-0.03159 z"
     id="path893"
     inkscape:connector-curvature="0" />
</svg>
